<?xml version="1.0" standalone="no"?>
<!DOCTYPE svg PUBLIC "-//W3C//DTD SVG 1.1//EN" "http://www.w3.org/Graphics/SVG/1.1/DTD/svg11.dtd">
<svg xmlns="http://www.w3.org/2000/svg">
<metadata>Copyright (C) 2015 by original authors @ fontello.com</metadata>
<defs>
<font id="fontello" horiz-adv-x="1000" >
<font-face font-family="fontello" font-weight="400" font-stretch="normal" units-per-em="1000" ascent="850" descent="-150" />
<missing-glyph horiz-adv-x="1000" />
<glyph glyph-name="github-circled" unicode="&#xe800;" d="m469-119q-194 0-331 138t-138 331 138 332 331 137 331-137 138-332-138-331-331-138z m0 834q-151 0-258-107t-107-258 107-258 258-107 258 107 107 258-107 258-258 107z m47-443q0 17 10 31t24 15q14 0 23-15t10-31-9-32-24-13-24 13-10 32z m-91-119q-190 0-190 185 0 57 38 99-5 2-2 41 4 37 18 71 50-6 116-52 25 6 64 6 41 0 64-6 62 43 103 50l13 2q14-34 17-71 4-39-1-41 38-42 38-99 0-185-190-185-3 0-22-1t-22 0-22 0-22 1z m45 22q86 0 128 20 43 22 43 84 0 28-17 50t-44 28q-11 1-59-2t-51-2q-14 0-40 2t-42 2-35-3-29-14q-26-22-26-61 0-64 42-84 41-20 128-20l2 0z m-81 143q14 0 23-15t9-31-9-32-23-13q-15 0-25 13t-9 32 9 31 25 15z" horiz-adv-x="938" />
<glyph glyph-name="linkedin-circled" unicode="&#xe801;" d="m366 178l-83 0 0 271 83 0 0-271z m-86 347q0 18 13 30t32 13q45 0 45-43 0-41-45-41t-45 41z m298-68q47 0 72-33t25-86l0-160-85 0 0 151q0 60-41 60-21 0-35-14t-13-40l0-157-85 0 0 185q0 70-1 86l73 0 5-36q28 44 85 44z m-109-575q-194 0-331 137t-138 331 138 332 331 137 331-137 138-332-138-331-331-138z m0 833q-151 0-258-107t-107-258 107-258 258-107 258 107 107 258-107 258-258 107z" horiz-adv-x="938" />
<glyph glyph-name="at-circled" unicode="&#xe802;" d="m460 585q96 0 163-68t66-167l0-12q0-39-24-65t-61-26q-35 0-63 31-28-31-75-31-43 0-73 30t-30 73q0 44 30 74t72 30q28 0 53-15 6 15 21 15 20 0 20-26l0-90q0-16 11-28t28-12 27 12 11 28l0 12q0 75-50 129t-126 54q-74 0-124-53t-51-130q0-75 54-128t129-54q55 0 102 31 13 9 25 1t14-20-11-23q-62-42-133-42-96 0-166 70t-69 165q0 98 67 167t163 68z m8-287q21 0 36 15t15 37-15 37-36 16-37-16-16-37 16-37 37-15z m1-416q-194 0-331 137t-138 331 138 332 331 137 331-137 138-332-138-331-331-138z m0 833q-151 0-258-107t-107-258 107-258 258-107 258 107 107 258-107 258-258 107z" horiz-adv-x="938" />
</font>
</defs>
</svg>